<svg xmlns="http://www.w3.org/2000/svg" width="51" height="28" viewBox="0 0 51 28">
  <g fill="none">
    <path fill="#313941" d="M22.7170065,3.04423356 C20.325312,1.13874735 17.2956404,0 14,0 C6.2680135,0 0,6.2680135 0,14 C0,21.7319865 6.2680135,28 14,28 C17.2956404,28 20.325312,26.8612527 22.7170065,24.9557664 C20.3858199,21.9211553 19,18.1224155 19,14 C19,9.87758455 20.3858199,6.07884468 22.7170065,3.04423355 Z"/>
    <circle cx="37" cy="14" r="14" fill="#C2C2C2"/>
  </g>
</svg>
